cod,UF,titulo
1,AP,AP - Mulheres ribeirinhas vítimas de escalpelamento e outros acidentes no transporte fluvial da Amazônia exigem providências
2,AP,AP - Comunidades de Oiapoque se organizam para enfrentar burocracia governamental e a invisibilidade da realidade indígena perante a opinião pública
3,AP,AP - Falta de transparência e responsabilidade sobre minério radioativo deixa população do norte do Amapá em estado de alerta
4,AP,AP - Precariedade do saneamento básico de Macapá é fator de injustiça ambiental e de comprometimento das condições de trabalho e promoção humana da população mais atingida
599,PR,"PR - Trabalhadores rurais, posseiros e faxinalenses lutam para resgatar terras usurpadas pelas Indústrias Zattar"
600,BA,BA – Pescadores e quilombolas da Comunidade de Graciosa lutam pelo direito ao território tradicional
5,AP,AP - Solução da Comunidade Quilombola do Ambé caminha a passos lentos
6,AP,"AP - Pesquisadores ludibriam conselhos de ética e desrespeitam população ribeirinha, em pesquisas humanas com o mosquito Carapanã, agente de transmissão da Malária."
7,AP,"AP - Após esgotamento do manganês, passivos ambientais e perspectiva econômica incerta rondam as cidades de Serra do Navio e Santana"
8,AP,"AP - Mesmo reconhecida, comunidade quilombola de Lagoa dos Índios é vítima da expansão imobiliária de Macapá"
9,AM,AM - Gasodutos podem atrair destruição para região bem preservada do Amazonas
10,AM,AM - Medidas para a sobrevida da quase extinta Etnia Juma
11,AM,AM - Missão religiosa desestabiliza mundo cultural de povo indígena isolado
12,AM,AM - Intromissão do tráfico de cocaína na vida dos povos indígenas do Sudoeste Amazonense - inoperância dos governos federal e estadual facilita a atividade dos narcotraficantes e deixa os jovens indígenas em situação de enorme vulnerabilidade
13,AM,AM - Avanço e violência pecuarista sobre florestas e áreas do extrativismo no Acre e Amazonas
14,AM,AM - Vitória de comunidades extrativistas poderá limitar alcance do Arco do Desmatamento
15,AM,"AM - Descoberta de ouro, garimpo e conflitos fundiários trazem violência e ameaçam saúde de populações indígenas"
16,AM,AM - Falta de assistência à saúde indígena coloca em risco a sobrevivência do Povo Pirahã
17,AM,"AM - Indefinição  sobre políticas de governo, fragilidade da assistência à saúde, avanço do desmatamento e da contaminação  de recursos hídricos para o plantio da soja ameaçam a vida de povos indígenas"
18,AM,AM - Quadro de calamidade da saúde dos povos indígenas do vale do Javari
19,AM,AM - Comunidade quilombola do Tambor aguarda titulação para ficar livre das imposições e da discriminação por funcionários do Ibama
20,AM,"AM - Sem salvaguardas territoriais, povos indígenas em Barcelos são ameaçados por projetos turísticos e pela pesca predatória da região do Baixo Rio Negro"
21,AM,"AM - Saúde indígena, no Alto Rio Negro, comprometida pela falta de estrutura e o excesso de burocracia da Funasa"
22,AM,AM - Conflitos e falta de uma política adequada para a população indígena de Manaus
23,AM,"AM - Criação de Reserva Extrativista é ameaçada por Ministério de Minas e Energia, grupos madeireiros, traficantes de tartarugas e governo de Roraima"
24,BA,BA - Ameaças de morte e de perda de emprego de familiares são utilizados para oprimir a população e desmontar a Reserva Extrativista de Canavieiras 
25,BA,"BA - Quilombo São Francisco do Paraguaçu luta por seus direitos e contra preconceito, violência e práticas coronelistas"
26,BA,BA - Ambientalistas e comunidades tradicionais formam coalizão vitoriosa pela  economia sustentável e a preservação do Parque dos Abrolhos e do estuário Cassurubá
27,BA,BA- Práticas violentas aterrorizam as famílias de pescadores e marisqueiros da região de Salinas da Margarida
28,BA,"BA - Indústria e mineração de Chumbo contaminam a água, o solo, afetam a produtividade agrícola, a saúde e a qualidade de vida da população de Santo Amaro da Purificação."
29,BA,"BA - Exploração de Urânio no sudoeste da Bahia envolve licenciamentos obscuros, contaminação, riscos à saúde e falta de transparência na fiscalização da política e da produção nuclear brasileiras"
30,BA,"BA - Comprometimento dos direitos humanos do Povo Tupinambá da Serra do Padeiro - doenças, violência policial, coronelismo e condições precárias da saúde indígena"
31,BA,"Areia Branca: oligarquias, cartórios, forças policiais, para-militares e golpes contra o patrimônio público violentam comunidade centenária às margens do lago de Sobradinho, na Caatinga baiana"
32,BA,BA - Luta dos Pataxó Hã-hã-hãe pela retomada da terra demarcada em 1937: violências contra lideranças Pataxó promovidas por fazendeiros e posseiros para punir os índios e suas pretensões territoriais
33,BA,"BA - Movimentos ambientalista, indígena e de pequenos produtores rurais, com apoio do Ministério Público Federal, lutam contra impactos de indústria da Celulose em Eunápolis"
34,BA,BA - Organizações baianas e entidades paulistas atuam em rede e impedem transferência inter-estadual de resíduos altamente tóxicos para incineração na Bahia
35,BA,BA - Divisão interna de comunidade quilombola ameaça realização de direitos e a defesa do território visado pela pressão imobiliária e turística em área privilegiada pelas condições de preservação natural.
36,BA,"BA - Poluição química na Baía de Todos os Santos contamina de peixes, caranguejos e alguns mariscos, fonte de renda e base alimentar de populações tradicionais e do turismo da região"
37,BA,"BA - Epidemia do Amianto pode afetar de forma irreparável a saúde de trabalhadores e ex-trabalhadores do setor, porém vários estados brasileiros, inclusive a Bahia, continuam permitindo sua produção"
38,BA,"BA - Comunidade da Ilha da Maré, com apoio de movimentos sociais e entidades públicas, luta para afirmar identidade, titular territórios quilombolas e combater práticas de racismo e degradação ambiental, bem como atividades portuárias e industriais que põem em risco a alimentação e sobrevivência de 500 famílias"
39,BA,"BA - Povo Tupinambá tem estratégia para enfrentar políticos e elites com práticas coloniais, preconceituosas e violentas"
40,CE,"CE - Apropriação da zona costeira, pelo agronegócio e o turismo internacional, coloca em risco terras tradicionais dos povos Tremembé"
41,CE,"CE - Exploração de camarão em viveiros, a carcinicultura é fortemente apoiada por bancos públicos de fomento, compromete fontes naturais de água doce e coloca em risco a sobrevivência de comunidades tradicionais marisqueiras e pescadoras do Cumbe, Ceará"
42,CE,"CE - Pioneiros na luta dos povos indígenas do Ceará, os índios Tapeba enfrentam o preconceito e as velhas oligarquias cearenses, mas vencem a invisibilidade pela arregimentação de forte corrente social na luta pela realização dos seus direitos"
43,CE,CE - A resistência do rio Cocó e da comunidade ambientalista à destruição da principal região de mangue de Fortaleza
44,CE,CE - Empreendimento turístico de massa esbarra em grupos de mulheres pescadoras em Caetanos e ameaça a preservação das atividades e costumes de comunidades litorâneas tradicionais do Ceará
45,CE,CE - Povo Anacé é desrespeitado e expulso de seu território para construção do Complexo Industrial e Portuário do Pecém
46,CE,"CE - Um dos primeiros povos indígenas contactados do Brasil, os Jenipapo Kanindé, descendentes dos Bayaku, lutam para vencer preconceitos, empresários sucroalcooleiros e projetos de enquadramento turístico"
47,CE,CE - Uso indiscriminado de agrotóxicos contamina recursos hídricos e é a provável razão da forte incidência de câncer em populações trabalhadoras e moradoras do vale do Jaguaribe
48,CE,"CE - No município de Cascavel, gestão insustentável de viveiros de camarão é mais um retrato das ações danosas da carcinicultura"
49,MA,"MA - Quebradeiras de coco de babaçu denunciam situação de violência e exploração do trabalho na região do Rio Mearim, no Maranhão"
50,MA,"MA - Indústria Guseira, Contaminação da Água, Falta de Segurança e Condições Impróprias à Vida e à Saúde dos Moradores do Distrito Industrial de Pequiá (Açailândia)"
51,MA,"MA - Projeto Grande Carajás, Usina Hidréletrica de Estreito e pressão agrícola sobre as Populações Ribeirinhas e os Povos Indígenas do rio Tocantins"
52,MA,"MA - Pólo siderúrgico e industrial na Ilha de São Luis - imbróglio envolve grandes empresas, Estado e Comunidades Tradicionais"
53,MA,MA - Comunidade Quilombola de Alcântara continua luta contra o Centro de Lançamento e pelo seu direito de ficar na terra
54,MA,MA - Povo Guajajara e a violência de madeireiros no Maranhão
55,MA,"MA - Pequenos agricultores do Maranhão lutam contra monocultura da soja, migração e deterioração ambiental, da saúde e do trabalho"
56,MA,MA - Baixo Parnaíba do Maranhão: quilombolas e agricultores familiares lutam contra  cadeia minero-siderúrgica e monoculturas
57,MT,MT - Dificuldades dos Paresi para a conquista de seus direitos e território  e o apoio decisivo do MPF para evitar a concessão e o licenciamento da PCH Ponte de Pedra
58,MT,MT - Conflito por terras públicas em Jaciara - famílias sem-terra não conseguem sequer a quarta parte de 10 mil hectares apropriados por fazendeiros
59,MT,"MT - Funai, Ministério Público e Polícia Federal dão bom exemplo na defesa do povo Kawashiva, ameaçado de extinção pela ação de grileiros e madeireiros"
60,MT,MT - Grilagem de terras públicas federais dificulta assentamento da reforma agrária no Mato Grosso
61,MT,MT - Desestruturação social e comprometimento da reprodução de peixes por hidrelétrica de Manso
62,MT,MT - Sofrimento e perseguição do povo Bororo no Mato Grosso
63,MT,"MT - Povo Xavante enfrenta grileiros e oportunistas, que se valem de violência, do lobby político e das fragilidades e ineficiência dos poderes Judiciário e Executivo para a protelação e usurpação dos seus direitos territoriais"
64,MT,MT - Consciência do Povo Enawenê Nawê não se dobra às tentativas de negociar a descaracterização de seu habitat e modo de vida tradicional
65,MT,"MT - Precariedade do atendimento à saúde indígena, terceirização, falta de estrutura e inconstância do dever do Estado já levou à morte muitas crianças Xavante"
66,MT,"MT - Brasil licenciou hidrelétrica (PCH Paranatinga II) em local sagrado da primeira cerimonia Kuarup, um dos mais importantes patrimônios imateriais da cultura brasileira - a celebração aos mortos ilustres do Alto Xingu"
67,MT,"MT - Comunidade quilombola de Mata Cavalo - apesar da conquista da titulação, ainda expulsa e sob ameaças"
68,MT,MT - Trabalho análogo às condições da escravidão campeia no Mato Grosso - até empresa de ex-presidente dos Estados Unidos foi flagrada submetendo trabalhadores a condições degradantes
69,MT,"MT - Com participação social e muita mobilização, Plano BR 163 Sustentável não convence sociedade organizada do Mato Grosso e Pará"
70,PA,PA - Insatisfação sobre o atendimento à saúde indígena provoca mudanças na política de assistência do governo federal
71,PA,PA - Estrada de Ferro e Projeto Grande Carajás avançam sobre Terras Indígenas
72,PA,"PA - Mineração de caulim contamina recursos hídricos e compromete a subsistência de comunidades da Vila do Conde, em Barcarena"
73,PA,PA - Perversidades sociais e ambientais no caminho da Estrada de Ferro Carajás
74,PA,PA - Mineração de níquel expulsa pequenos trabalhadores rurais e povos indígenas no Sudeste do Pará
75,PA,"PA - Complexo hidrelétrico de Belo Monte ameaça povos indígenas, ribeirinhos e parte da população de Altamira"
76,PA,"PA - Conflitos entre a atividade mineradora e comunidades tradicionais extrativistas no extremo oeste do Pará: deterioração de igarapés, lagos e corte de matas e castanheiras"
77,PA,PA - Poder estatal e dominação territorial contra os quilombolas extrativistas do Trombetas
78,PA,"PA - Pequenos produtores rurais da região de Santarém são expulsos pelo avanço da soja, além de sofrer com os danos à saúde causados pelos agrotóxicos usados pela monocultura"
79,PA,"PA - Comunidades quilombolas de Moju sofrendo com a contaminação dos rios e igarapés, em virtude de vazamentos do mineroduto de caulim "
80,SE,SE - Reconhecimento e titulação da comunidade de Lagoa Nova não barram violência e protelação de usineiros na justiça
81,SE,SE - Avanço da indústria do turismo sobre territórios tradicionais e pescadores do litoral de Sergipe: aviltamento do Plano Diretor de Aracaju para satisfazer ao interesse econômico
82,SE,"SE - Vitória Quilombola em Porto da Folha, mas dificuldades para promover a educação e a saúde da comunidade do Mocambo"
83,SE,SE - Quilombolas de Pontal dos Crioulos lutam contra a violência e pela titulação
84,SE,SE - Pescadores de Resina lutam contra expulsão por construtora de mega resort
85,SE,SE - Ameaças de violência contra quilombolas de Brejão dos Negros que lutam pela titulação atingem também padre e bispo
86,SE,"SE - População quilombola do segundo quilombo urbano reconhecido no País sofre discriminação, racismo e violência"
87,SE,"SE - Última etnia indígena de Sergipe, os Xocó-Kuará da Ilha de São Pedro sofrem por falta de atendimento médico, sanitário e educacional"
88,MS,MS - (In)segurança do trabalho na indústria da alimentação
89,MS,"MS - O Martírio de um Grande Povo - identidade, afirmação e reconhecimento dos direitos e terras dos Guarani-Kaiowá"
90,MS,MS - Violência econômica e territorial contra o Povo Terena
91,MS,"MS - Quilombo Dezidério Felipe de Oliveira, em Dourados, enfrenta a resistência de produtores rurais de soja e milho para obter a titulação de seu território"
92,MS,"MS - Carvão para Siderurgia e Mineração ameaça terras indígenas, águas, cerrado e matas do Pantanal"
93,MS,MS - Cultivo de Cana-de-Açúcar ameaça o Pantanal
94,RN,RN - Atividade de Carcinicultura é acusada de degradação ambiental no Rio Grande do Norte
95,,
96,RN,"RN - Transposição do rio São Francisco é questionada por técnicos, movimentos socioambientais, religiosos, comunidades indígenas e de pescadores. Vinculação a projetos do agronegócio poderá intensificar a desertificação da região Nordeste"
97,RN,"RN - Rio estratégico para o abastecimento e desenvolvimento do Rio Grande do Norte, o Piranha-Açu vem sendo poluído por companhias de saneamento, indústrias, atividades agrícolas e pela ocupação ilegal de suas margens, o que também concorre para o assoreamento da bacia."
98,RN,RN - Trabalho escravo é flagrado em fazendas subsidiadas com recursos públicos no Rio Grande do Norte
99,RN,RN - Empresa de carcinicultura e governo estadual são acusados por desastre ambiental no rio Potengi
100,RN,"RN - Epidemia invisível do Amianto coloca em risco saúde de homens e mulheres potiguares, destacadamente no município de Açu. Desde a década de 1960 a população convive com a distribuição de água por tubulações de amianto. Assembleia Legislativa bane o uso da substância no Estado"
101,RN,RN - Comunidade Quilombola de Acauã seguiu os passos do reconhecimento e está prestes a ter seu território tradicional titulado
102,RN,"RN - Mal uso do solo e uso intenso dos recursos hídricos amplia desertificação no Nordeste, e conflitos sobre uso das águas vêm aumentando. 95% do território do Rio Grande do Norte já apresentaram sinais do estresse natural"
103,RJ,RJ - Indústria a ser implantada ameaça moradores de Paracambi e a bacia do Guandu de contaminação química
104,RJ,"RJ - Pressionados pela explosão imobiliária, a família Pinto preserva a Mata Atlântica e luta pelo reconhecimento do Quilombo do Sacopã, na cidade do Rio de Janeiro "
105,RJ,"RJ - Pescadores artesanais sofrem ameaças,  violências e até morte, ao defender seu direito ao trabalho na Baía de Guanabara"
106,RJ,"RJ - Comunidade Quilombola da Pedra do Sal, berço de Donga, Pixinguinha e João da Baiana, luta para ter seu espaço garantido"
107,RJ,"RJ - Índios Guarani-Mbyá sem espaço para viver em Paraty se instalam em área protegida de Camboinhas, decididos a preservar sambaquis, mas sofrem violência e lutam contra a expulsão"
108,RJ,RJ - Pescadores artesanais e suas famílias têm direitos violados ao serem obrigadas a viver sob o controle do Exército em Imbuhy
109,RJ,"RJ - Pescadores artesanais, quilombolas e outros moradores do entorno da Baía de Sepetiba: sem peixes, expostos a contaminações e ameaçados por milícias ligadas a empreendimentos em construção"
110,RJ,RJ - Cidade dos Meninos: décadas de contaminação e doença versus o desejo da moradia
111,RJ,RJ - Quilombo de Preto Forro continua aguardando a titulação sob violência e ameaças
112,RJ,"RJ - Apesar de reconhecidos oficialmente, quilombolas de Santa Rita do Bracuí continuam a lutar contra empresa que tomou seu território"
113,RJ,"RJ - Jardim Gramacho - catadores de materiais recicláveis lutam pelo direito ao trabalho, apesar das condições de marginalização, doenças e insalubridade"
114,RJ,"RJ - No Morro das Andorinhas, moradores centenários resistem às pressões de uma visão de meio-ambiente que desrespeita a própria lei"
115,RJ,"RJ - Tentativa de construção de aterros de lixo no Rio de Janeiro no bairro de Paciência e no município de Seropédica enfrentam protestos dos moradores, ambientalistas, do Ministério Público, do TCU e da Aeronáutica"
116,RJ,RJ - Pescadores artesanais da APA de Maricá lutam contra a instalação de mega resort
117,RJ,"RJ - Construção de Complexo Petroquímico (COMPERJ) promete empregos e progresso, mas afeta 11 municípios, traz riscos à população e contrapõe os Executivos com o TCU e o MPF, que questionam a obra"
427,MT,"MT - Índios Kaiabi, Apiaká e Munduruku lutam contra madeireiros, mineiros, fazendeiros e UHEs para defenderem seus territórios e seus modos de vida na região do Teles Pires"
118,RJ,"RJ - Além da exposição à contaminação decorrente das atividades de um complexo químico industrial, população da Baixada Fluminense ainda recebe lixo tóxico de Cubatão, São Paulo"
119,RJ,"RJ - Despejo de produto tóxico por indústria no Rio Paraitinga, em Resende, deixa mais de 20 mil pescadores sem poder trabalhar por meses e afeta o abastecimento d&#039;água de 700 mil pessoas"
120,,
121,RJ,RJ - Fragilidade no processo de licenciamento ambiental do Complexo Portuário de Açu coloca em risco comunidades de 32 municípios dos estados de Minas Gerais e Rio de Janeiro
459,SP,SP - Ocupação popular resiste contra prefeitura de Osasco e empresário
429,RR,RR - Povos indígenas da Serra da Lua lutam contra impactos negativos da monocultura de acácias no entorno de suas terras
122,RJ,"RJ - Comunidade Quilombola da Ilha de Marambaia é pressionada pela Marinha, grupos acadêmicos e parte da imprensa com argumentos ambientalistas e preconceitos para sair de seu território, marco histórico do fim da escravidão no Estado"
123,PB,PB - Barragem superfaturada e com fiscalização contratada pela empreiteira construtora rompe. Responsáveis culpam a natureza pelo rompimento.
124,PB,"PB - Povo Potiguara sofre com a contaminação de seus rios, com a vulgarização de sua produção artesanal para o turismo e com a  convivência de crianças com lixão municipal."
125,PB,PB - Projeto de Carcinicultura compromete meio ambiente e impede passagem de moradores por acesso tradicional
126,PB,"PB - Detenções, espancamentos e violência de policiais e pistoleiros não impede decretação de fazenda improdutiva para fins da reforma agrária"
127,PB,PB - Moradores convivem com poluição industrial e são violentados com a perda de um rio tradicional
128,PB,"PB - Feita às pressas, barragem de Acauã, remove 4500 pessoas, instaladas em assentamentos desprovidos de condições equiparadas à dos povoados inundados. Faltam serviços essenciais e demanda de trabalho para os reassentados. Indenizações miseráveis foram também desvalorizadas pelo atraso nos repasses."
424,MG,"MG - No norte de Minas, Vazanteiros e Quilombolas lutam unidos por seus territórios tradicionais"
129,GO,"GO - Em Goiás, como em outros estados, o amianto continua a fazer novas vítimas, embora seu banimento seja um imperativo reconhecido internacionalmente "
130,GO,GO - Vítimas do Césio 137 até hoje lutam pelo reconhecimento pleno de seus direitos
131,GO,"GO - Povo indígena Avá-Canoeiro, reduzido a seis indivíduos que ainda aguardam a delimitação de suas terras, parcialmente inundadas por duas centrais elétricas"
132,GO,GO - Buridinas: Atividades irregulares e obras gvernamentais ameaçam a integridade do território deste povo indígena
133,,
134,GO,GO - Populações tradicionais e bóias-frias sofrem com trabalho degradante nas monoculturas de cana
135,GO,"GO - Desalojadas com violência de suas moradias precárias, famílias do Acampamento Sonho Real até hoje aguardam o cumprimento de todas as ?promessas? do TAC "
136,GO,GO - Comunidade Kalunga: quilombolas ainda em busca da titulação plena e da reconquista de suas terras
137,AL,"AL - Ameaças de morte, associadas ao coronelismo midiático e político são enfrentados pelos Xukuri-Kariri em Palmeira dos Índios. Território Indígena foi finalmente demarcado pela Funai, mas aguarda sanção presidencial"
138,AL,"AL - Longa luta da Comunidade Quilombola de Tabacaria, enfrentando ameaças de morte e a negligência de órgãos públicos na mesma região do Quilombo dos Palmares. Seu território foi o primeiro a ser reconhecido e delimitado no Estado de Alagoas"
139,AL,"AL - Povo indígena Kalankó tem língua própria, mas ainda luta por ter sua identidade reconhecida, sua terra delimitada e sua comunidade assistida dignamente com saúde e educação"
140,AL,"AL - Usineiros e políticos promovem trabalho em condições análogas à escravidão, na indústria da cana de açúcar"
141,AL,AL - Comunidade Quilombola de Gameleiro enfrenta Lixão criado pela prefeitura de Olho D&#039;Água das Flores e consegue a suspensão da atividade que ainda  ameaça a saúde e sustentabilidade de seu território
426,MT,"MT - Povos indígenas, pescadores artesanais, ribeirinhos e agricultores familiares lutam contra complexo hidrelétrico do Teles Pires"
142,AL,AL - Povo Kariri-Xokó aguarda decisão da Justiça Federal sobre ampliação da sua Terra Indígena
423,DF,DF - Catadores de material reciclável lutam contra contaminação e por políticas públicas
425,RS,RS - Complexo Termelétrico de Candiota prejudica saúde da população
143,AL,"AL - MST enfrente violência e ocupa estradas e órgãos públicos para vencer as elites rurais, cobrar justiça e conquistar infra-estrutura e serviços básicos para os assentamentos do Alto Sertão de Alagoas"
144,AL,"AL - Isolados, doentes  e transformados em bóias-frias, após muita luta quilombolas de Filus começam a receber atenção"
428,PE,"PE - Catadores de Recife seguem na luta pela manutenção de sua fonte de renda e de seus direitos, e se aliam a moradores contra empreendimento na Área de Proteção Ambiental da Mata do Engenho Uchôa"
145,AL,AL - Demagogia e realidade na transposição e no uso intensivo dos recursos naturais no Baixo São Francisco
146,RO,RO - Terras Indígenas sofrem ameaças de garimpeiros
147,RO,"RO - Conflito na Flona Bom Futuro ameaça agricultores, povos indígenas e seringueiros "
148,RO,RO - Financiamento do Banco Mundial para frigoríficos coloca em risco povos indígenas na Amazônia
149,RO,RO - Terra Indígena Uru-Eu-Wau-Wau sofre invasões desde 1980
150,RO,"RO - Território do Povo Suruí está ameaçado por garimpeiros, madeireiros e pecuaristas "
151,RO,RO - Hidrelétricas do Madeira ameaçam populações tradicionais e povos indígenas na Amazônia
152,RO,RO - Madeireiros ameaçam a Terra Indígena Karipuna
153,RO,RO - Longa história de conflitos do Povo Gavião
154,RO,RO - A terrível história dos Cinta Larga 
155,AC,AC - Atividades pretoleiras destroem a Amazônia e expulsam povos indígenas e populações tradicionais
156,AC,AC - Em Feijó e municípios vizinhos indígenas de quatro povos morrem por falta de assistência da Funasa
157,AC,AC - Povo Yawanawa ameaçado pela BR-364 e por madeireira de apresentador de tevê
158,AC,"AC - Povo Ashaninka luta contra madeireiras, biopirataria, violência e invasão de suas terras, no Brasil e no Peru "
159,AC,"AC - 21 anos depois da morte de Chico Mendes, extrativistas continuam tendo que lutar por seus direitos em Xapuri "
160,AC,AC - Povo indígena Apolima-Arara em luta contra a própria Funai para garantir seus direitos
161,AC,AC - Queimadas no Acre são proibidas sob alguns protestos 
162,AC,AC - Agricultores familiares são transformados em trabalhadores escravos no Acre e também aliciados para o Amazonas
163,PR,PR - Quilombolas da Comunidade de Varzeão lutam desde 1999 pela retomada e regularização de suas terras
164,PR,"PR - Trabalhados rurais sem terra vencem luta contra empresa internacional de sementes transgênicas, após muita luta, violência e uma morte"
414,AL,"AL - Povos indígenas de Alagoas lutam por direitos, identidade, tradição e sobrevivência"
165,PR,"PR - Mesmo enfrentando violências, a luta e as vitórias dos faxinalenses desemboca na sua integração a outras comunidades tradicionais"
415,AL,"AL - Moroso processo de demarcação e homologação das terras indígenas Wassu-Cocal, em Joaquim Gomes, evidencia descaso e violência"
166,PR,"PR - Após &#039;prosperidade&#039;, exploração do chumbo e prata em Adrianópolis e adjacências gera passivo ambiental e contaminação "
167,PR,PR - População de Mauá da Serra impede implantação de usina recicladora de chumbo
418,ES,"ES - Comunidades tradicionais, agricultores e indígenas lutam contra degradação provocada por estaleiro"
168,PR,"PR - Indústria fumageira utiliza ?sistema integrado? que torna reféns pequenos agricultores e seus filhos, além de expô-los ao envenenamento pelo tabaco"
169,PR,"PR - Após 50 anos de luta, Povo Kaingang obtém vitória contra UH de Salto Apucaraninha, mas outra usina está em construção"
170,PR,PR - Quilombolas da Invernada do Paiol de Telha: há mais de cem anos lutando por suas terras
421,TO,"TO - Apesar da violência e ameaças de jagunços e grileiros, camponesas da Gleba Tauá continuam a resistir"
171,PR,PR - UHE de Tijuco Alto: privatizando e ameaçando cerca de 250 mil pessoas e uma das últimas reservas da Mata Atlântica
172,PR,PR - Povo da etnia Xetá: lutando para não desaparecer
173,PR,"PR - Povo Kaingang de Laranjeiras do Sul: acampados perto de suas terras, esperando a demarcação e o reconhecimento de seus direitos"
174,PR,"PR - A luta dos moradores contra o Aterro Sanitário de Caximba, que serve a 16 municípios e lança chorume na bacia do Rio Iguaçu"
175,PR,"PR - Acampamento Primeiros Passos, do MLST: ataques de milícias e lutas internas pelo poder causam violências, mortes e enfraquecem o movimento"
176,PR,PR - Unidade de industrialização do xisto contamina bacia do Rio Iguaçu com resíduos tóxicos e põe em risco a saúde da população
177,PR,"PR - UHE Mauá da Serra: luta de povos indígenas, ribeirinhos, moradores, movimentos sociais e entidades, apoiados pelo MPF, em defesa da Bacia do Rio Tibagi e de seus habitantes continua longe de chegar ao fim"
178,PE,PE - Usina de Açucar e Álcool deve ao INSS e é ocupada por movimentos de trabalhadores rurais em defesa da reforma agrária e da soberania alimentar ameaçada pela política exportadora de agrocombustíveis
179,PE,PE - Ambiente impróprio de indústria farmacêutica e falta de atenção técnica pode ter sido causa de contaminação de soro responsável por várias mortes em hospitais de Recife e Fortaleza
180,PE,"PE - Disputas judiciais, lentidão e ineficiência governamental, violência fazem do Complexo Engenho Prado um verdadeiro Purgatório. Mas trabalhadores rurais não desistem."
181,PE,PE - Reação a pistoleiros resulta em mortes. Autoridades investigam atuação policial em milícias armadas e conflito fundiário continua em São Joaquim do Monte
182,PE,"PE - Mulheres pagam o preço da maternidade, da discriminação, do desamparo previdenciário e da falta de identidade formal perante o Estado e a indústria canavieira pernambucana"
183,PE,"PE - Enquanto pescadores aguardam reserva extrativista, estuário do rio Sirinhaém assiste a desmandos de grupo usineiro, que promove a expulsão de famílias locais, derruba e queima casas, conta com apoio de policiais e processa relatores da Plataforma DhESCA Brasil."
184,PE,"PE - Aterro Sanitário Industrial ameaça pesca e a saúde pública na principal região pesqueira de Pernambuco, situada no Grande Recife. Pescadores protestam."
185,PE,PE - Ameaça de fábrica de bebidas leva Estado de Pernambuco a licenciar aterro sanitário industrial a 25 metros do rio Arataca. Agricultores assentados protestam contra contaminação de mananciais e desvalorização de sua produção orgânica e terras.
186,PE,PE - Deputado estadual Marco Barreto (PMN)  mantinha trabalhadores em condições análogas à escravidão e é condenado pela Justiça do Trabalho. 
187,PE,"PE - Condições sociais, mortalidade infantil, conflitos políticos, territoriais e impactos socioambientais de depósitos e aterros sanitários de lixo metropolitano em Jaboatão dos Guararapes."
188,PE,"PE - Confusão judiciária, terras, interesses econômicos e ligações obscuras dividem povo Xuruku de Ororubá. Índios são condenados à prisão e pistoleiros permanecem impunes ou vivendo em regime semiaberto."
189,PE,"PE - Povo Truká conquista território, mas convive com violência e megaprojetos dos ?donos? do São Francisco"
190,PE,PE - Trabalho escravo e dilapidação ambientais
191,ES,ES - Comunidade Quilombola de Retiro: aguardando demarcação e titulação para terem finalmente suas terras garantidas
192,ES,ES - Comunidade de Paul em Vila Velha luta contra a ameaça de instalação de um terminal de recebimento e estocagem de soda cáustica
193,ES,ES - Moradores de Cachoeiro do Itapemirim lutam contra instalação de lixão para servir ao sul do estado
194,ES,"ES - Com sua herança reduzida a um-quarto, quilombolas de Araçatiba buscam reconhecimento e usam cultura para manter vivas as tradições"
195,ES,"ES - Comunidade de Graúna luta para ser reconhecida como Quilombola junto à Fundação Cultural Palmares, enquanto os serviços de saúde e saneamento continuam precários"
196,ES,"ES - Quilombo de Sapê do Norte: reduzidos a 10%, em pessoas e território, continuam na luta pela titulação de suas terras"
197,ES,ES - Comunidade de São Domingos: quilombolas continuam perdendo a luta contra as monoculturas
198,ES,ES - Via Campesina e Movimento das Mulheres Camponesas em luta direta contra a monocultura do eucalipto
199,ES,ES - Quilombolas de Linharinho: condenados a pedir para vender restos de madeira desprezados dentro de suas próprias terras 
200,ES,ES - Projeto de aterro sanitário ameaça nascentes e população do bairro Litorâneo
201,ES,ES - Operários vitimados na indústria da celulose não recebem cuidados e ainda são ameaçados
202,ES,"ES - Populações, ecossistemas e economia local são afetados pela construção da Ferrovia Litorânea Sul"
203,ES,"ES - Povos Tupinikim e Guarani: depois de expostos a verdadeiro genocídio, expulsos e humilhados, ainda lutam contra a burocracia para ter seus direitos garantidos"
204,SC,SC - Projeto de mineração de Fosfato gera insegurança sobre possível contaminação dos recursos hídricos e do solo em região vocacionada ao turismo e marcada pela agricultura orgânica e de subsistência familiar
205,SC,"SC - Resistência a projeto hidrelétrico é combatida com o uso da força policial, determinada pela justiça catarinense, a pedido do Ministério Público Estadual"
206,SC,SC - Potencial de impacto de projeto hidrelétrico leva MAB e pequenos agricultores de região limítrofe de Santa Catarina e Rio Grande do Sul a bloquear reuniões dos empreendedores com prefeituras. Pesquisadores são impedidos de acessar pequenas propriedades rurais por temor de envolvimento com EIA-Rima.
207,SC,"SC - Utilização de areia contaminada na construção de peças de concreto e asfalto empregados em vias públicas colocam sociedade civil em conflito com o governo de Santa Catarina, a Fiesc e a Fundição Tupy SA."
208,SC,SC - Poder arraigado da mineração carbonífera em Santa Catarina é empecilho à recuperação ambiental de áreas degradadas e cursos de água que sofrem os efeitos da acidificação. Crescimento da usinas termoelétricas é novo foco de poluição e consumo de carvão mineral.
209,SC,"SC - Serra da Abelha: importante área de transição de Mata Atlântica para Florestas de Araucárias é defendida pela sociedade civil e por técnicos do ICMBio, mas continua sendo alvo da atividade de madeireiros, sob o olhar passivo das autoridades governamentais"
210,SC,SC - Usina Termelétrica do Sul Catarinense dá sobrevida à mineração carbonífera em Santa Catarina. Ambientalistas temem pela protelação da degradação atmosférica e hídrica no Estado.
211,SC,"SC - Regularização fundiária da Comunidade Quilombola de Invernada dos Negros avança, para estancar os processos de subtração de terras no século XX, e apesar de políticos ruralistas do século XXI"
212,SC,"SC - Quilombo de São Roque tem território reconhecido, mas ainda enfrenta resistência do ICMBio em ter seu território tradicional compabilizado com o manejo dos parques nacionais Aparados da Serra e Serra Geral"
213,SC,SC - Comunidade Guarani de Morro dos Cavalos tem a garantia ao direito territorial protelada por ações na justiça e nos três níveis federados de governo. Ruralistas e grande imprensa vendem a ideia de índios ?estrangeiros? na terra que foi deles antes do descobrimento do Brasil pelos portugueses. 
214,MG,"MG - Barragem de Berizal prejudica comunidades tradicionais da bacia do Rio Pardo,  no norte de Minas Gerais"
215,MG,"MG - Violência contra Xakriabás prevalece até mesmo em município onde são maioria, em meio a assassinatos e obras de barragem que fazem aumentar a seca"
216,MG,"MG - Irregularidades e afoiteza do governo no licenciamento da usina hidrelétrica de Irapé leva comunidades atingidas a sofrerem com reassentamento em terras inadequadas para a agricultura, com falta d&#039;água e energia elétrica, várias vezes cortadas pela Cemig"
217,MG,"MG - Grilagem, jagunçagem e violência policial contra quilombolas de Brejo dos Crioulos. Comunidade aguarda titulação territorial para ter paz frente à opressão do latifúndio improdutivo."
218,MG,"MG - Uma das maiores comunidades quilombolas de Minas Gerais, os remanescentes do Gorutuba lutam por direitos sociais e culturais e enfrentam há anos a usurpação territorial e a ação violenta de fazendeiros, muitas vezes auxiliados pela polícia"
219,MG,"MG - Poluição ambiental grave e persistente, exposição crônica ao arsênio e outras substâncias tóxicas, além de expulsão de comunidades tradicionais, são algumas das consequências da extração de ouro a céu aberto em Paracatu"
220,MG,"MG - Estado protela arquivamento do pedido de licenciamento da Usina Hidrelétrica de Murta, no vale do Jequitinhonha "
221,MG,MG - Desestruturação do INCRA em Minas Gerais e desconhecimento da Justiça sobre os direitos quilombolas prejudicam acesso da comunidade da Pontinha às suas terras tradicionais e a áreas de uso comum vitais para sua sobrevivência
222,MG,MG - Licenciamento de PCH no rio Mucuri revela desconhecimento de autoridades estaduais sobre direitos quilombolas
223,MG,MG - Documentos sobre terras de remanescentes quilombolas são guardadas a sete chaves por Cartório de Serra do Salitre. Familiares que tentaram levantar o assunto nunca mais retornaram à comunidade de Theodora de Oliveira.
224,MG,"MG - Atividade de empresas de Mineração e Siderurgia, em Vazante e Três Marias, é foco importante da contaminação do rio São Francisco. Pescadores artesanais já denunciaram as graves consequências para as águas e peixes da região"
225,MG,"MG - Findo o prazo de concessão de terras devolutas do Estado, empresas monocultoras de eucalipto mobilizam trabalhadores rurais e comunidades tradicionais pela titulação de terras que se voltem ao extrativismo e a atividades agrossilvopastoris. Há disputa e violência no embate com as empresas e seguranças do negócio carvoeiro"
226,MG,MG - Intervenção indiscriminada da monocultura de eucaliptos leva região a perder fontes tradicionais de água. Sobrevivência local torna-se insustentável e pequenos agricultores e moradores são levados a deixar região
227,MG,"MG - Região entre Curvelo e Três Marias sofre com a atividade de reflorestamento, com a pulverização de agrotóxicos e perdas substantivas de nascentes."
228,MG,"MG - Desertos Verdes na região de Curvelo expõem trabalhadores rurais a condições de trabalho indignas. Marginalização territorial de comunidades tradicionais, degradação e perda de recursos hídricos, exposição de mulheres a riscos de saúde, pelo manejo de agrotóxicos, são alguns dos problemas enfrentados na região. Empresas, especialmente vinculadas ao setor siderúrgico, vêem sendo autuadas pelo Ministério Público do Trabalho. "
229,MG,"MG - Mineração e transposição de águas para grande empresa é licenciada de forma irregular pelos governos estadual e federal, condenando uma das áreas com patrimônio natural e cultural mais significativos de Minas Gerais "
230,MG,MG - O longo processo de reconhecimento do povo indígena Aranã. Áreas de recargas de aquíferos são ameaçadas por associação de fazendeiros a projetos de reflorestamento de eucalipto no vale do Jequitinhonha
231,MG,"MG - Povo Maxakali sofre as consequências do ilhamento territorial e degradação ambiental, com alcoolismo que intensifica conflitos internos. Mortes de crianças e a grave situação social dos Maxacali levou o Ministério Público Federal a denunciar o Estado Brasileiro à Comissão Interamericana dos Direitos Humanos da OEA"
232,MG,"MG - Aimorés, cidade construída à beira do rio Doce tem seu rio suprimido da paisagem por obra de grandes empresas de Mineração e Siderurgia. Povo Krenak sequer foi consultado e considerado no EIA-Rima, em área que interfere em seu território. Parque com cavernas com inscrições rupestres com a memória da etnia teve áreas alagadas. 2000 famílias foram desalojadas pela represa. Pescadores também foram prejudicados pela obra, as mudanças ambientais e das espécies de peixes da região."
233,MG,"MG - Conselho de Política Ambiental de Minas Gerais atropela rito de licenciamento e licencia instalação e operação da usina hidrelétrica Candonga, de interesse de grandes empresas de Mineração e Siderurgia, sem o cumprimento de várias condicionantes. Transformado em Monumento Natural, o rio Piranga, primeira denominação do rio Doce, está ameaçado por outras usinas e pequenas centrais hidrelétricas"
234,MG,MG - Rompimentos de barragens de rejeitos da Rio Pomba Mineração comprovam os riscos da atividade minerária para a sustentabilidade hídrica de Minas Gerais e estados à jusante das suas bacias hidrográficas
235,MG,MG - Aliciamento de trabalhadores rurais nordestinos impõe condições degradantes de trabalho para a produção de cana-de-açúcar na região do Triângulo Mineiro
236,MG,MG - Povo Caxixó aguarda reconhecimento e homologação de sua Terra Indígena e enfrenta a influência direta da monocultura de eucalipto que vem secando as suas águas. Conselho de Política Ambiental e entidade ambientalista fazem vista grossa para empreendimento empresarial
237,PI,"PI - Região do Alto Parnaíba, área de transição entre Caatinga, Cerrado e Floresta Amazônica é impactada pela atividade de companhia de Alimentos, que além de utilizar grandes áreas para a cultura da soja, usa carvão vegetal para o processamento dos grãos de soja. Populações tradicionais são pressionadas pelas atividades da companhia e pelo aumento da pecuária bovina na região."
238,PI,"PI - Indústria de Papel e Celulose chega ao vale do Parnaíba, promovendo o plantio intensivo do eucalipto, deslocando comunidades tradicionais e ampliando a escassez de água do semiárido para o perímetro do deserto verde na área de transição da Caatinga para o Cerrado e a Amazônia."
239,PI,"PI - Região de chapadões no extremo-sul do Piauí, patrimônio singular de importância mundial arqueológica e pela transição entre áreas ricas dos biomas Caatinga e Cerrado, é ameaçada por projetos de expansão agrícola e mineração, e até o momento não obtiveram o cuidado merecido das instâncias governamentais "
240,PI,PI - Erro de cálculo colocou projeto de assentamento rural em risco.
241,SP,"SP - Indígenas Guarani, quilombolas, pequenos agricultores, trabalhadores organizados e movimentos sociais se opõem a projetos para construir usinas hidrelétricas no Vale do Ribeira"
242,SP,SP - Megaprojeto de porto no Estado de São Paulo afetaria populações tradicionais e povos indígenas
243,SP,"SP - Eucalipto no Vale do Paraíba, região leste do Estado de São Paulo, está causando graves danos ambientais e êxodo rural"
244,SP,"SP - Indústria de petróleo e gás ameaça ecossistemas, ecoturismo e populações tradicionais no litoral norte de São Paulo"
245,SP,SP - População da periferia de São Paulo sofre com o descompromisso de políticas públicas e administração voltada para a exclusão
246,SP,SP - Cubatão: passivo ambiental devido à contaminação química provocada pela Rhodia ainda não foi reparado 
247,SP,"SP - Contaminação ambiental produzida por indústria de agrotóxicos no Recanto dos Pássaros, em Paulínia (SP), continua a apresentar consequências na saúde de moradores e trabalhadores"
248,SP,SP - Duas empresas deixam grave passivo ambiental na região leste da cidade de São Paulo
249,SP,"SP - Pólo Petroquímico em área urbana densamente habitada emite gases que podem provocar alterações no funcionamento da tireóide, afetando particularmente às crianças"
250,SP,SP - Jurubatuba é considerada a área com o maior passivo ambiental da cidade de São Paulo
251,SP,"SP - Comunidade com 1700 pessoas viveram expostas às substâncias tóxicas carcinogênicas, contaminantes orgânicos e metais pesados que podem afetar a saúde, especialmente de crianças"
252,SP,SP - Condomínio residencial foi construído em terreno que durante anos serviu como lixão industrial
253,SP,"SP - Depósitos de carros na Cidade Tiradentes, extremo leste da cidade de São Paulo, funciona em terreno irregular"
254,SP,SP - Aterro em Santo Antônio de Posse (SP) recebeu 320 mil toneladas de resíduos industriais entre 1974 e 1987
255,SP,SP - Recuperação de solventes contamina população com poluentes nocivos a saúde 
256,SP,SP - Lixo tóxico com  amianto e fenol estão depositados irregularmente em um depósito no perímetro urbano de Avaré
257,SP,SP - Quilombo da Caçandoca foi vítima de um violento processo de expropriação de seu território 
258,SP,SP - Comunidade quilombola do Vale do Ribeira sofre com a falta d&#039;água e recebe ameaças de fazendeiro
259,SP,SP - Aterro mantém 122 toneladas de solo contaminado por HCH (hexa cloro ciclohexano) 
260,SP,SP - Estação Ecológica da Juréia deixou 300 famílias de caiçaras em situação de ilegalidade
262,SP,SP - Empresa que estocava irregularmente grandes quantidades de combustível é responsável pela contaminação do subsolo e das águas subterrâneas  da Vila Carioca em São Paulo
263,SP,"SP - Empresas de produtos químicos e de petróleo deixara um enorme passivo ambiental no bairro da Mooca, cidade de São Paulo, após décadas de armazenamento indevido, que comprometeu solo e subsolo"
264,SP,SP - Empresas irregulares reciclavam borra de alumínio
265,SP,"SP - Companhia produtora de nitrocelulose, ácido fluorídrico e fluoreto de alumínio tem provocado acidentes do trabalho e ambientais desde 1935 "
266,SP,SP - Cooperativa pode estar operando em terreno contaminado 
267,SP,SP - Passivo ambiental radiativo em terreno na zona sul da cidade de São Paulo 
268,SP,SP - Cana de açúcar e citricultura estão vinculados ao trabalho escravo 
269,SP,SP - Pólo Cerâmico no Estado de São Paulo tem sido associado à contaminação ambiental por fluoreto gasoso e metais pesados
270,SP,SP - Contaminação do solo no Estado de São Paulo é em grande parte  provocada por postos de combustíveis
271,RR,"RR - Terra Indígena Raposa Serra do Sol é marcada por conflitos dos indígenas com governos estadual e federal,autoridades e empresas públicas e privadas"
272,RR,RR - Invasão de posseiros e garimpeiros em Terra Yanomami
274,RR,RR - Fonte de conflitos envolve povos indígenas e empreendimentos hidrelétricos planejados pelo governo federal e estadual
275,RR,RR - Brasil e a Guiana Inglesa usam a planta cunani na pesca e produzem medicamentos para a medicina tradicional extraídos da árvore tibiru ou coração verde
276,RR,"RR - Mucajaí, em Roraima, é o local onde foi detectada a maior área de desmatamento em maio 2009"
277,RR,"RR - Pesca ilegal, transporte ilegal de madeira e tráfico de animais são os crimes mais comuns registrados em Roraima"
278,RR,RR - Lideranças Wapichana da Região Serra da Lua denunciaram que pescadores não índios do Município de Bonfim estão entrando na TI
279,RS,"RS - Avanço da ocupação territorial no Sul do Brasil e nos vizinhos Paraguai, Uruguai e Argentina começa a inviabilizar a cultura nômade e a prática de acampamentos dos Mbyá Guarani em locais tradicionais da etnia."
280,RS,RS - Monopolização da indústria alimentícia impõe preços ao mercado consumidor e à produção rural. Organizações camponesas acusam Estado de favorecer interesses das transnacionais.
281,RS,RS - O caso da primeira comunidade quilombola urbana no Brasil: disputas imobiliárias e titulação das terras da Família Silva
282,RS,RS - Comunidade Quilombola de Morro Alto e Ministério Público enfrentam pressa do DNIT em desapropriar terras tradicionais para a duplicação da BR 101
283,RS,RS - Interações institucionais e organização do movimento quilombola no Rio Grande do Sul: a regularização das terras da Comunidade Quilombola de Casca ainda aguarda conclusão.
284,RS,RS - Ataque a laboratórios e viveiros de empresa de Celulose põe em cheque neutralidade e isenção científica dos processos de dominação territorial pelos promotores de Desertos Verdes
285,RS,RS - Obras da Hidrelétrica de Machadinho reduz níveis de poços de água e expulsa mais de 1500 pessoas do campo.
286,RS,RS - Usina Hidrelétrica de Barra Grande inunda mais de seis mil hectares de Mata Atlântica e Araucárias
287,RS,"RS - Redução da classificação do nível toxicológico de agrotóxicos, pelo Ministério da Saúde, pode estar na raiz de problemas neurocomportamentais associados ao manuseio do produto"
288,RS,RS - Livre arbítrio de projeto hidrelétrico torna inócuas ações judiciais em defesa dos direitos dos Kaingang medidas mitigatórias ficam subordinadas ao fato consumado.
289,TO,TO - Território Apinajé ameaçado por projetos hidrelétricos do Plano de Aceleração do Crescimento (PAC)
290,TO,TO - Ilha do Bananal no rio Araguaia: a maior ilha fluvial do mundo ameaçada por atividade madeireira e pecuária
291,TO,TO - Obras de infraestrutura do PAC levam desenvolvimento desordenada à regiões frágeis do Tocantins
292,TO,TO - Povo Xerente é pressionado pela expansão econômica do Estado do Tocantins
293,TO,TO - Povo Krahô ? Kanela: 30 anos de peregrinação para reconquistar suas terras
294,TO,TO - Projeto de monocultura de soja transformou município em campeão nacional de pobreza e desigualdade
295,TO,"TO - Grandes projetos econômicos de atividades agroexportadoras levam à degradação social e ambiental da região do Bico-do-Papagaio, no Tocantins"
296,TO,TO - A lógica perversa da ocupação proposta pelo modelo de desenvolvimento do PAC repercute no cotidiano das populações tradicionais e sangra o território amazônico.
297,TO,TO - Corredor do Jalapão: esperança para preservar a biodiversidade do Cerrado
305,MG,MG - População luta contra instalação de projeto de mineração
306,MG,MG - Moradores lutam por obras de saneamento e pela revitalização da lagoa de Ibirité
307,MG,MG - População acusa PCHs de privatizarem Rio Tijuco
308,MG,MG - Comunidade Quilombola da Lapinha luta por território tradicional enfrentando violência diversas
309,MG,MG - População de São Sebastião do Paraíso sofre com contaminação de curtumes e laticínios
310,MG,MG - Comunidade de Unaí denuncia violação dos direitos humanos
311,PA,PA - Comunidades tradicionais lutam contra contaminação por cortumes na periferia de Belém
312,PE,"PE - Camponeses, indígenas, quilombolas e ribeirinhos lutam contra a construção de barragens e hidrelétricas"
313,RJ,RJ - População de Itaboraí luta por seus direitos na justiça
314,RJ,RJ - Pescadores lutam para garantir sua subsistência
315,RJ,RJ - Petrópolis: Comunidade São João Batista teme ser soterrada por deslizamento de terra e lixo
316,RJ,RJ - Cooperativa dos Catadores de Itaoca; ONG Onda Solidária; Centro Pró-melhoramento do Anaia Pequeno
317,RS,RS - índios Kaingang lutam para garantir território tradicional
318,SP,"SP - População de Americana luta contra instalação de usina termoelétrica Carioba II, movida Ã&nbsp; gás natural "
319,SP,SP - Moradores lutam para permanecer em suas terras
320,SP,SP - População luta contra risco de contaminação e depósito irregular de lixo tóxico
321,AL,AL - Habitantes de Cidade de Lonas lutam por moradia digna e por melhores condições de vida	
322,AP,AP - Comunidades extrativistas sofrem com a exploração de intermediários e com a falta de serviços públicos	
323,BA,BA - Comunidades pesqueiras e quilombolas lutam contra instalação de resort na ilha de Cajaíba	
324,BA,BA - Moradores e pescadores lutam contra degradação ambiental	
325,BA,BA - Populações ribeirinhas lutam contra prejuízos causados por barragem
326,BA,BA - Comunidades sofrem com destruição do meio ambiente e desestruturação de seu meio de vida	
327,MA,MA - Agricultores vivenciam degradação e ameaças causadas pela monocultura.	
328,RJ,RJ - Moradores do entorno de lixões sofrem com problemas ambientais e de saúde pública	
329,SE,SE - Catadoras de mangaba lutam pela demarcação de reservas extrativistas	
331,AL,AL - Pescadores lutam contra realocação exigida pela prefeitura
332,AM,AM - índios Mura aguardam demarcação oficial de suas terras
333,BA,BA - Comunidades ribeirinhas da bacia do Rio Grande lutam contra a instalação de PCHs na região
334,BA,BA - População de Ilhéus denuncia empreendimentos de viabilidade socioambiental duvidosa
335,BA,BA - Comunidades de fundo de pasto denunciam grilagem no município
336,ES,ES - Comunidades tradicionais de Anchieta se mobilizam contra empreendimentos ambientalmente danosos
338,SC,SC - Imbituba segue sofrendo com degradação ambiental
339,PA,PA - Ulianópolis exige punição a poluidores e recuperação ambiental
344,CE,CE - Comunidades atingidas pela barragem do Açude Figueiredo exigem reassentamento e indenizaçâo
345,MT,MT - Povos indígenas de Aripuanâ lutam contra instalaçâo de hidrelétrica
341,BA,BA - Agricultores e trabalhadores rurais de Jaborandi vivem em condiçÃ&micro;es análogas à escravidâo
342,BA,"BA - Há mais de 20 anos, agricultores familiares disputam com empresário do agronegócio   as águas do Rio Salitre, que já teve até seu curso mudado"
343,BA,BA - Conflitos entre moradores de Sapeaçu e termoelétricas continuam
340,SC,SC - Populaçâo catarinense luta contra instalaçâo de estaleiro
346,MG,MG - Comunidade de Mangueiras reivindica sua ancestralidade quilombola e a garantia da integridade de seu território tradicional
347,PA,"PA - Em Anapu, a violência contra os camponeses continua, enquanto jagunços e  mandantes de assassinato permanecem gozando da impunidade"
348,PA,PA - Quilombolas de Santarém lutam por território tradicional e direitos básicos
349,PA,"PA - Na Gleba Nova Olinda e entorno, Povo Borari, camponeses e ribeirinhos lutam contra grileiros, madeireiros e sojicultores do Sul, que buscam cada vez mais expulsá-los de suas terras, enquanto aguardam demarcaçâo"
350,PE,PE - Comunidade Quilombola de Conceiçâo das Crioulas luta por demarcaçâo de território tradicional
351,RJ,RJ - Parque Nacional da Restinga de Jurubatiba é ameaça à subsistência da populaçâo
353,RJ,RJ - Moradores de Seropédica lutam contra instalaçâo de aterro sanitário
354,SC,SC - Populaçâo luta contra implantaçâo de PCHs no Rio Cubatâo do Sul
355,MA,MA - Quilombolas de Alto Bonito do Brejo lutam por reconhecimento	
356,MA,MA - Quilombolas de São Vicente Ferrer lutam por regularização fundiária e pela vida	
357,MG,MG - Comunidade quilombola dos Luízes luta para garantir a titulação de seu território tradicional. 	
358,PE,PE - Povos indígenas lutam contra escassez de água 	
359,SP,SP - Moradores de Mauá lutam por indenizações e por seus direitos	
360,SP,SP - População luta a favor do banimento do amianto.	
361,SP,SP - Trabalhadores lutam para evitar contaminação e por indenização	
362,SP,SP - Pescadores lutam por indenização após desastre ambiental
365,TO,TO - Kalungas pleiteiam  reconhecimento e acesso a direitos básicos
364,SP,SP - Agricultores e caiçaras de Ubatuba sofrem com restrições e regulamentos injustos e desrespeitosos
369,RS,RS - Pescadores lutam por indenização após desastre ambiental
363,MA,MA - Quilombolas do Charco correm risco de vida ao lutar por seus direitos
366,CE,CE - Radiação e extração de urânio ameaça cearenses e baianos
367,PA,PA - Conflitos e disputas por terra na Amazônia são marcados por assassinatos na região
368,SP,SP - Cultivo da cana-de-açúcar segue sendo prejudicial à saúde e à vida dos trabalhadores
400,CE,CE - Pescadores artesanais têm sobrevivência ameaçada por supostos empreendimentos turísticos
401,SP,SP - Catadores lutam contra indústria de incineração
402,PB,PB - Agricultores de João Pessoa lutam para permanecer em fazenda na Ponta de Gramame
403,RJ,"RJ - Quilombolas lutam por território de direito e contra a especulação imobiliária na Rasa, em Búzios"
404,SP,SP - Indígenas Guarani Mbya exigem demarcação de território 
405,CE,"CE - Em Irauçuba e municípios vizinhos, camponeses lutam contra a desertificação e a favor de serviço médico adequado"
406,CE,"CE - Em Trairi, pescadores artesanais indicam privatização como impedimento à subsistência"
408,PE,"PE - No complexo de Suape, agricultores familiares lutam por indenizações justas e por seus direitos"
409,RJ,RJ - População de Miguel Pereira sofre com o descarte sem tratamento dos resíduos sólidos do município
410,PA,"PA - Quilombolas, ribeirinhos e agricultores familiares lutam pela titulação de suas terras e contra a contaminação"
411,BA,BA - Quilombolas de Rio dos Macacos lutam por titulação definitiva de território de direito
412,AL,"AL - Em Alagoas, Tingui-Botó reivindicam há mais de uma década a revisão dos limites de suas terras e a ampliação do território disponível"
422,TO,TO - Agricultores familiares reivindicam cumprimento da Reforma Agrária
419,MA,"MA - Quilombolas de Depósito lutam por seu território em Brejo, Maranhão"
420,SC,SC - Índios Kaingang lutam para homologar terras indígenas já demarcadas
416,AL,AL - Comunidades tradicionais de Alagoas lutam contra poluição e assoreamento para sobreviver
417,BA,"BA - Quilombolas de Pitanga dos Palmares, na Bahia, lutam contra presídio, pedágio e ferrovia"
413,TO,TO - Comunidade quilombola de Grotão aguarda a regularização de todo o seu território
444,PR,"PR - Povos indígenas Guarani do Paraná e Mato Grosso do Sul lutam por água, por mínimas condições de vida e por regularização de seu território tradicional"
430,GO,"GO - Morro da Serrinha, em Goiânia, luta por  fiscalização da nascente do Córrego Serrinha e contra condomínios irregulares"
432,PA,PA – Munduruku e ribeirinhos lutam pela vida e contra complexo de hidrelétricas em seu território
431,CE,CE - Pedreira da Empresa Britaboa ameaça índios Pitaguary em Fortaleza
433,MG,MG - Moradores de Belo Horizonte e Nova Lima lutam contra a Mina de Capão Xavier
434,AM,"AM - Agricultores, pescadores e ribeirinhos contabilizam 19 comunidades na luta contra remoções do Exército e do Governo Federal"
435,RR,"RR - Povos indígenas Makuxi e Wapixana, da TI Serra da Moça, exigem a ampliação de seu território tradicional"
436,RO,"RO - Camponeses do Acampamento Canaã, em Ariquemes, lutam por território contra jagunços, policiais e autoridades"
437,MA,MA - Povos indígenas da TI Alto Turiaçu cansam de ameaças à sua segurança e a seu território e desistem de esperar a atuação do poder público
438,PE,"PE – Camponeses lutam por território, pela manutenção de sua agricultura familiar  e contra a monocultura de eucaliptos "
439,MA,"MA - Agricultores familiares de São Raimundo lutam contra Suzano Papel e Celulose e empresário do setor madeireiro, enquanto pressionam pela conclusão do processo de desapropriação da terra e implantação de assentamento. "
440,AM,"AM – Ameaçados por contaminação de lixão, povos indígenas da comunidade Boa Esperança lutam contra Prefeitura Municipal de São Gabriel da Cachoeira"
441,AC,AC – Mais de duzentas famílias de agricultores e seringueiros lutam contra um fazendeiro e seus jagunços por território
442,GO,GO – Quilombolas de Cidade Ocidental lutam por titulação definitiva de seu território tradicional
443,AM,AM - Agricultores familiares e seringueiros lutam pela vida contra madeireiros ilegais e grileiros
445,PE,"PE - Comunidade de Zeppelin luta contra remoções e por direitos básicos, como educação e saúde"
446,AM,"AM - Índios Paumari sofrem com invasões e ameaças realizadas por pesqueiros ilegais e posseiros, além do aumento da mortalidade infantil por falta de atendimento médico"
447,BA,BA - Agricultores familiares e ribeirinhos são prejudicados por políticas de recursos hídricos
448,MA,"MA - Território quilombola de Monge Belo, do Vale do Itapecuru, aguarda titulação, enquanto é literalmente atropelado pela Vale e a Estrada de Ferro Carajás"
449,MA,MA - Agricultores familiares e pescadores artesanais de São Luís lutam pela implementação da RESEX do Tauá-Mirim
450,MG,"MG - Agricultores familiares lutam contra a privação do uso da água, a falta de titulação das terras e pelo reassentamento dos atingidos por barragens"
451,PB,PB - Indígenas Tabajara lutam por regularização de território tradicional
452,CE,"CE – Comunidade de Poço da Draga luta contra política de higienização social, elitização da área ditada pela valorização imobiliária e até a construção de um aquário gigante"
453,CE,CE - Comunidade Quilombola Contente tem terras e vidas destruídas com construção da ferrovia Transnordestina
454,RJ,"RJ - Comunidade Vila Autódromo luta há décadas contra a prefeitura por direito à cidade, contra a especulação imobiliária"
455,RO,RO - Agricultores de Seringueiras lutam pela vida e por terras da União destinadas à Reforma Agrária
456,RS,"RS - Hidrelétrica em área protegida ameaça agricultores familiares, caiçaras, povos indígenas e ribeirinhos: Pai Querê"
457,BA,BA - Comunidades tradicionais lutam contra implantação de Pequenas Centrais Hidrelétricas no rio Cariranha
458,BA,BA – Comunidades de Fundo de Pasto de Monte Santo lutam contra grileiros pela terra e pela vida
460,MA,MA - Trabalhadores rurais sem terra lutam pela vida e para agilizar processo de regularização de assentamento na Fazenda Cipó Cortado
461,MS,"MS - Agricultores familiares e trabalhadores rurais lutam contra modelo de agricultura excludente e degradante caracterizado por latifúndio, monocultivo e agrotóxico"
462,CE,CE - Comunidades urbanas instaladas há décadas no mesmo território lutam contra especulação imobiliária que usa como desculpa a Copa e VLT
463,AM,"AM - Povos indígenas Kaxarari, sob constante pressão, reivindicam parte importante do território tradicional"
464,CE,"CE – Sem fiscalização efetiva por parte do Ibama, pescadores artesanais lutam pela subsistência contra pescadores ilegais de lagosta"
465,RN,RN - Pescadores artesanais e agricultores familiares têm seu modo de vida comprometido por usinas eólicas
466,MG,"MG - Agricultores familiares, quilombolas e trabalhadores rurais sem terra lutam por regularização e titulação de território tradicional"
484,MT,MT – Retireiros de Luciára lutam para garantir sua permanência no território e seu modo de vida tradicional
468,PE,PE - Agricultores familiares do Assentamento Herbert de Souza lutam por reassentamento e indenização de famílias atingidas por barragens
469,MS,"MS - Comunidade ribeirinha centenária Porto Esperança vive sob ameaça, sem demarcação ou regularização"
470,DF,DF – Comunidade de Samambaia tem seu direito à saúde desrespeitado na luta contra lixão e aterro sanitário
467,RN,"RN - Comunidade Quilombola Macambira, no município de Lagoa Nova, luta há quase duas décadas pela garantia de manutenção do seu território tradicional e modo de vida"
491,DF,DF - Trabalhadores rurais Sem Terra reivindicam o encaminhamento de terras para Reforma Agrária
492,PB,"PB - Agricultores familiares de Fazenda Antas, em Sapé, lutam pela titularidade da terra em que vivem e trabalham há mais de 20 anos"
473,PR,PR - Agricultores familiares atingidos por barragens são desrespeitados em seu direito à moradia e não têm nenhuma informação concreta sobre reassentamento
474,AM,"AM – Desde 2008, cinco comunidades quilombolas de Barreirinha se defendem de madeireiros, pecuaristas e pesca industrial, aguardando ação do INCRA"
475,PA,"PA – Quilombo de Gurupá, agricultores familiares e pescadores artesanais reclamam de piora na qualidade de vida, diminuição da oferta de peixes e ocupação irregular do seu território causadas por rizicultores, tendo à frente Quartiero"
476,MA,MA - Agricultores familiares de Alto Alegre do Maranhão resistem em seu território tradicional e lutam para garantir seus direitos
477,MA,"MA – Mesmo reconhecida e certificada desde 2008, comunidade quilombola Santa Maria dos Moreiras tem seus direitos violentados e vidas ameaçadas até os dias atuais"
478,RN,RN - Agricultores familiares que serão atingidos pela Barragem do Oiticica lutam por indenizações justas e por local escolhido para o reassentamento
479,RJ,RJ – Comunidade do Horto Florestal luta contra especulação imobiliária e remoção do Jardim Botânico
480,ES,ES - Pescadores artesanais lutam pela sobrevivência e contra a Petrobras
481,DF,DF – Indígenas lutam por permanência e reconhecimento de santuário e território tradicional
482,BA,"BA - Comunidades lutam para reivindicar seus direitos e acelerar os processos de certificação e de titulação de terras, contra especulação e energia eólica"
483,BA,BA - Comunidades quilombolas e agricultores familiares lutam para garantir território e meios de subsistência contra mega empreendimento de mineração
493,AP,"AP – Agricultores familiares sofrem com grilagem, ameaças de desmatamento e expulsão de seus lotes"
494,SC,SC – Conflito sobre demarcação da Terra Indígena Guarani de Araçá’í pede urgência
485,MG,"MG – Ciganos lutam por regularização fundiária em favor da comunidade Calon, do bairro São Gabriel"
486,AM / AC,AM / AC – Extrativistas lutam por regularização fundiária e pela vida em Boca do Acre
487,MA,MA – Quilombolas exigem regularização de território tradicional ocupado há mais de 200 anos
488,PR,PR - Comunidade Vila Nova Costeira segue sem informações sobre remoção para construção da terceira pista de aeroporto
489,RS,RS - Indígenas Kaingangs sofrem consequências de processo demarcatório sem continuidade
490,MG,MG – Mais de mil famílias da Ocupação Dandara lutam para garantir seu direito fundamental à moradia
495,GO,GO – Atingidos por barragens lutam por revisão e regularização de indenização e reassentamento
496,SP,SP - Quilombolas descendentes de José Joaquim de Camargo lutam para garantir o direito à posse de suas terras
497,RS,RS – Comunidade Quilombola de Areal da Baronesa solicita título de posse coletiva do território
498,PR,"PR – Reabertura da Estrada do Colono divide organizações, políticos e interesses econômicos, pondo em risco um dos mais ricos e últimos trechos de Mata Atlântica ainda existente"
499,RO,"RO - Luta contra UHE Tabajara é mais ampla: envolve território, autonomia e reconhecimento"
500,PB,PB - Mais de duzentas famílias da Ocupação Tijolinho Vermelho lutam por moradia
501,RJ,RJ - Trabalhadores rurais Sem Terra aguardam regularização de assentamento pela Justiça
502,PE,PE – Indígenas da etnia Fulni-ô lutam pela demarcação de suas terras e pelo recebimento de indenização pelo Dnit
503,MA,MA - Agricultores familiares lutam há mais de 20 anos pela regularização de seu direito à terra no município de Timbiras
505,SP,"SP - Empresa Acumuladores Ajax Ltda contamina trabalhadores e moradores do entorno, em Bauru"
506,PR,PR – Comunidades tradicionais lutam contra exclusão e por uso do território
507,PE,PE – Copa do Mundo deixa moradores de Camaragibe sem moradia e sem indenizações justas
508,PB,PB – População sofre com as consequências da má gestão de resíduos sólidos no município de Puxinanã
509,AM,AM - Terra Indígena do Rio Cuieiras aguarda demarcação enquanto é palco de inúmeros conflitos
504,MT,MT - Povos indígenas Myky reivindicam ampliação dos limites de seu território para corrigir erros da primeira demarcação
330,SE,SE - Comunidade aguarda titulação para poder garantir seu território e acessar projetos sociais	
510,MG,MG - Centenas de famílias de comunidade tradicionais são atingidas pela mineração em Minas Gerais e no Espírito Santo
511,SC,SC – Centenas de famílias de agricultores familiares atingidos por barragens cobram indenizações e reassentamentos
512,MG,MG -  Comunidades de Belo Horizonte e Contagem lutam por direito à moradia
513,RJ,RJ – A luta de trabalhadores rurais sem terra pelo Assentamento Osvaldo de Oliveira
514,RJ,RJ – Quilombolas de Alto Camorim lutam por território contra especulação imobiliária e “grandes eventos”
515,AC,AC - Povos indígenas Jaminawa exigem regularização da TI Colocação São Paulino
516,AC,AC - Povos indígenas Kaxinawá de Seringal Curralinho reivindicam a demarcação de seu território desde 1999
517,PA,"PA - Quilombolas de Alto-Acará esperam pelo RTID, documento que vai garantir a posse das terras"
518,MG,"MG - Povos indígenas Pataxó lutam por regularização fundiária, adequação jurídica do uso do território para fins sustentáveis e direitos indígenas básicos"
519,SC,SC – Centenas de famílias de agricultores familiares de Santa Cruz e Esperança lutam contra a mineração
520,SP,SP - Trabalhadores rurais Sem Terra reivindicam adjudicação das terras e melhores condições de infraestrutura básica do acampamento
521,SP,SP - Quilombolas do Carmo lutam para que seja concluído o RTID e seus direitos territoriais sejam respeitados de fato
522,RO,RO - Povos indígenas lutam contra abertura de estrada cortando seu território
523,RS,RS – Atingidos por barragens lutam contra Complexo Hidrelétrico Garabi-Parambi
525,RO,RO - Povo Indígena Cassupá luta pelo reconhecimento enquanto grupo étnico e pelo território ocupado em área do Ministério da Agricultura e Embrapa
526,RO,RO - Povos indígenas Puruborá lutam por regularização e demarcação de território
527,RN,"RN – Sem atendimento médico ou educação indígenas diferenciados, os Potiguara exigem demarcação e regularização fundiária de seu território"
528,PE,PE – Comunidade Quilombola de Castainho luta pela regularização fundiária de seu território e pela garantia de direito à vida de seus moradores
529,MG,"MG – População de antigas instâncias hidrominerais medicinais luta pelo direito a reaver suas águas, exploradas por empresa internacional"
530,RS,RS - Violência e criminalização marcam luta indígena Kaingang pelo seu território
532,MS,MS - Comunidade quilombola de Furnas da Boa Sorte segue lutando para garantir a demarcação e titulação de seu território já tradicional
524,PI,PI - Agricultores familiares têm suas terras ameaçadas por avanço de mineradora
531,MS,"MS – Agricultores familiares, ribeirinhos e pescadores artesanais sofrem com assoreamento do rio Taquari e inundação perene no Pantanal"
533,AM/RO,"AM/RO – Povo Tenharim sofre com rodovias, madeireiros, preconceito, criminalização e assassinato de lideranças enquanto seus direitos constitucionais seguem sendo violados"
546,GO,GO - Comunidade quilombola de Cedros cobra do INCRA agilidade na publicação do Relatório Técnico de Identificação e Delimitação (RTID)
547,MG,"MG - Pescadores artesanais, quilombolas e vazanteiros de Caraíbas reivindicam a demarcação física da área reconhecida pelo Termo de Autorização de Uso Sustentável (TAUS)"
548,MG,MG - Agricultores familiares e população urbana atingida pelo Projeto Vale do Rio Pardo lutam para que o Licenciamento Prévio não seja emitido e pela revogação do Decreto n&deg;30
549,MS,"MS – Comunidade Quilombola Furnas do Dionísio lutam pela desintrusão de seu território, ainda invadido por fazendeiros"
550,PA,"PA – Povos indígenas Asurini lutam por direitos, território e contra desmatamento"
551,PA,"PA – Atingidos por barragens, indígenas, quilombolas e comunidades tradicionais de Tucuruí lutam por seus direitos"
552,PB,PB – Acampamento sem terra 15 de Novembro luta contra Usina São João por território e subsistência
553,PE,PE – Famílias de trabalhadores rurais lutam contra especulação imobiliária e reintegração de posse irregular de seu território
554,PR,PR - Trabalhadores rurais sem terra reivindicam imóvel em poder da Araupel S.A. para destiná-lo à Reforma Agrária
555,RO,RO – Milhares de famílias atingidas pela UHE de Samuel e do Baixo Madeira lutam para serem reassentadas e por seus direitos
556,BA,BA – Comunidades tradicionais reivindicam participação no processo de construção de empreendimento turístico e redesenho do Projeto para que respeite seu modo de vida e o meio ambiente
557,BA,BA - Comunidades indígenas lutam pelo reassentamento das famílias Tuxá
558,GO,GO – Atingidos por agrotóxicos em Rio Verde lutam pela punição dos culpados e contra a pulverização aérea
559,MS,MS - Povos indígenas da TI Ofaié-Xavante aguardam há 22 anos por demarcação pela Fundação Nacional do Índio (FUNAI) e homologação por decreto presidencial
560,MT,MT - Povos indígenas do Cerrado mato-grossense lutam contra projetos hidrelétricos no Rio do Sangue
561,PA,"Linha de transmissão de Tucuruí é foco de conflitos, impactos e problemas que chegam a três estados "
562,RS,"RS - Comunidade Quilombola Rincão dos Martimianos segue lutando contra invasores, água contaminada e para regularizar e finalizar sua situação fundiária"
563,SC,SC – Comunidades tradicionais e meio ambiente ainda sofrem com derramamento de óleo
564,SC,SC – Mais de duas mil famílias de pescadores artesanais lutam contra novo Porto privado
565,MS,MS - Povos indígenas Guarani-Kaiowá lutam por demarcação da TI Guyraroká
536,BA,"BA - Quilombolas, agricultores familiares, comunidades de fundo e fecho de pasto e ribeirinhos dos rios Verde e São Francisco são vítimas de grilagem de terras e de assoreamento dos rios"
538,RJ,"RJ – Diferentes comunidades do Parque Serra da Tiririca lutam pelo direito de permanecer na área e desenvolver suas atividades, principalmente, agrícolas"
539,MA,"MA – Comunidades quilombolas de Queimadas, Três Irmãos e Monta Barro lutam por reconhecimento e regularização fundiária de território"
540,RS,RS – Dezenas de famílias lutam contra estaleiro que expulsou-as e por indenizações justas
541,PA,PA - Trabalhadores rurais Sem Terra lutam pela vida e por regularização fundiária no Acampamento Nova Esperança
542,SP,"SP - Quilombo da Fazenda aguarda, há quase dez anos, titulação de seu território tradicional"
543,RJ,RJ – Centenas de sem-teto lutam por moradia e direitos após serem ilegalmente despejados de ocupação de sete anos 
544,SP,SP – A luta de centenas de famílias da Ocupação Mauá por moradia
545,MA,"MA - Comunidade Quilombola de Puraquê luta por titulação de território, desapropriação de latifúndios, reforma de estradas, construção de escolas e postos de saúde e contra a ameaça de empresário"
537,SP,SP - Comunidade Quilombo do Jaó aguarda a elaboração do Relatório Técnico de Identificação e Delimitação (RTID) pelo Instituto Nacional de Colonização e Reforma Agrária (INCRA)
566,ES,ES – População da Grande Vitória sofre com poluição provocada por siderúrgicas e luta por indenizações
567,GO,GO – Três mil famílias de trabalhadores sem-terra do Acampamento Dom Tomas Balduíno lutam por território improdutivo
568,PA,PA - Povos indígenas Tembé lutam por soberania e proteção da TI Alto Rio Guamá
569,PI,PI – Agricultores familiares e comunidades quilombolas de São Raimundo Nonato lutam contra instalação de empresas de mineração e carvoarias em seu território
570,RS,RS – Moradores e pescadores de Pontal da Barra sofrem com empreendimentos irregulares e precárias condições de vida
571,MS,"MS – Usina Santa Olinda tem dívidas milionárias por escravizar indígenas, e trabalhadores rurais reivindicam seu território, além de indenizações por reintegração de posse truculenta e indevida"
572,RJ,RJ – Ocupação Manoel Congo luta para que as obras de requalificação do imóvel sejam realizadas
573,RJ,RJ - Quilombolas do Alto da Serra do Mar lutam pela titulação das terras onde vivem há mais de três décadas
574,MT,"MT - Povo indígena Ikpeng reivindica retorno ao seu território originário, atualmente ocupado por agricultores e fazendeiros"
575,RS,RS - Quilombolas lutam para que o INCRA dê prosseguimento ao procedimento administrativo destinado à demarcação e à delimitação definitiva do Quilombo da Mormaça
576,GO,GO - Quilombo da Família Magalhães aguarda ansiosamente pela titulação definitiva de suas terras
577,PR,PR - Trabalhadores rurais Sem Terra exigem punição para ruralista pelo assassinato de agricultor Sebastião Camargo
578,RJ,"RJ - Comunidades urbanas, pescadores artesanais, organizações e movimentos sociais se mobilizam para impedir que o Terminal Portuário de Ponta Negra destrua a sociobiodiversidade de Maricá"
579,SC,SC – Comunidade Areal da Ribanceira luta por regularização fundiária para se manter em seu território tradicional
580,MA,MA – Povos tradicionais de Codó lutam por seus direitos à saúde e à vida contra empresas e políticos
581,MG,MG - Agricultores familiares e moradores da Serra do Gandarela lutam contra instalação de mina da Vale
582,PA,PA - Beiradeiros de Montanha-Mangabal lutam contra hidrelétrica e exigem serem consultados pelo governo federal sobres decisões que afetem diretamente seu território
583,PA,PA - Extrativistas de Repartimento dos Pilões lutam por seu território e o título da terra
584,PR,PR – Trabalhadores e movimentos sociais lutam pela desapropriação de terras improdutivas do Grupo Atalla
585,SE,SE - Agricultores familiares e trabalhadores rurais sem-terra obtém vitória com desapropriação da Fazenda Santa Maria e criação do assentamento Novo Sonho
586,SP,SP - Povos indígenas guarani da TI Jaraguá aguardam somente a assinatura da Presidência da República para que sua terra seja homologada
587,CE,"CE - Agricultores familiares e pescadores artesanais de Itapipoca lutam por seus direitos territoriais, políticos e ambientais"
588,MA,MA - Comunidade do Cajueiro luta contra construção de porto em seu território
589,MG,MG - Apanhadores de flores lutam por recategorização do Parque Nacional das Sempre-Vivas (PNSV) e sua transformação em Reserva de Desenvolvimento Sustentável (RDS)
590,MG,"MG - Trabalhadores rurais Sem Terra do Acampamento Nova Vida, da Fazenda Córrego Fundo-Gravatá, em Novo Cruzeiro, lutam contra reintegração de posse"
591,MG,"MG – Quilombolas de Saco Barreiro sofrem com dificuldade de acesso ao seu território, superexploração do trabalho nas fazendas, ameaças, racismo, coação por parte dos fazendeiros e prejuízos na saúde por conta da aplicação de agrotóxicos e maturadores nas plantações"
592,PA,"PA - Trabalhadores rurais reivindicam regularização da posse da terra no complexo Divino Pai Eterno, em São Félix do Xingu"
593,RJ,RJ - Moradores da Vila União de Curicica lutam contra remoções e por indenizações justas
594,BA,"BA - Mesmo tendo garantido a certificação, comunidade Quilombola de Batateira ainda aguarda a titulação de seu território"
595,BA,BA - Comunidade quilombola do Quingoma aguarda por resolução de conflito com a Concessionária Bahia Norte
596,PR,PR - Aldeia Guarani Kuaray Haxa aguarda a sentença definitiva para ter a permanência garantida em seu território
597,RO,RO - Trabalhadores rurais sem terra e posseiros lutam por reforma agrária e contra pistoleiros e fazendeiros
598,PA,PA - Povos indígenas da TI Mãe Maria lutam para garantir seus direitos e seu território
601,RO,"RO - Comunidade de Remanescentes de Quilombo Forte Príncipe da Beira, já reconhecida e registrada pela Fundação Cultural Palmares (FCP), ainda aguarda pela demarcação de seu território"
602,MA,MA – Comunidades impactadas pela implementação do Complexo Termoelétrico Parnaíba exigem medidas de compensação e mitigação e indenizações por danos morais coletivos
603,TO,TO - Povos indígenas e comunidades tradicionais lutam contra a UHE Serra Quebrada e a favor de garantir seus direitos e a permanência em seus territórios
604,MA,"MA - Comunidades de Santa Quitéria do Maranhão, no Baixo Parnaíba, lutam contra monocultivo e aguardam regularização fundiária das terras"
605,TO,TO – Trabalhadores rurais Sem Terra de Olga Benário lutam por território e contra despejo
606,SE,"SE – Comunidades tradicionais do povoado Jatobá, em Barra dos Coqueiros, sofrem com poluição ambiental causada por empresas"
607,SP,SP – Ocupação Vila Nova Palestina luta por moradia digna e direitos constitucionais
608,RO,RO- Comunidades quilombolas de Santa Fé aguardam emissão de título definitivo de seu território
609,BA,BA - Populações tradicionais resistem ao crescente modelo do agronegócio no município de Formoso do Rio Preto
610,RO,"RO – Em Alta Floresta do Oeste, dezenas de famílias de posseiros do Acampamento Betinho disputam território com Fazenda Castanhal"
611,RO ,"RO  - Famílias de pequenos agricultores e milhares de indígenas da TI Rio Branco sofrem com crime ambiental de PCHs do Grupo Cassol e outros, em Alta Floresta do Oeste"
612,RO,RO - Indígenas Wuajuru e quilombolas de Rolim de Moura do Guaporé e de Tarumá lutam por demarcação de território em Alta Floresta do Oeste
613,RO,"RO – Em Alto Alegre dos Parecis, centenas de famílias de acampados da PA Ché Guevara lutam pela vida e pela escritura das terras em que vivem"
614,RO,"RO - Sem Terra do Acampamento Paulo Justino e Posseiros do Acampamento Terra Prometida, em Alto Paraíso, sofrem vários tipos de violência na tentativa de garantir território"
615,RO,"RO – Em Alto Paraíso, Sem Terra do Acampamento 10 de Maio estão senso assassinados enquanto centenas de famílias lutam contra reintegração de posse de área já expropriada para reforma agrária"
616,RO,"RO - Sem Terra do Acampamento 13 de Agosto, em Alto Paraíso, têm sido atacados por policiais e pistoleiros da Fazenda Paraíso"
617,RO,"RO – Em Alvorada do Oeste, Sem Terra do Acampamento Sílvio Rodrigues sofrem enquanto aguardam, na beira da estrada, por reforma agrária"
